Többváltozós statisztika jamovi-ban és R-ben - 10 Logisztikus regresszió
…
az explanatory_data változó, amely egy, a magyarázó változó lehetséges értékeit tartalmazó adattbázis,

a plt_churn_vs_relationship pontdiagram, amely y tengeleyen a has_churned változót, x tengelyen a time_since_first_purchase változót jeleníti meg, egy illesztett glm görbe segítségével.

Ahhoz, hogy előrejelzést készítsünk logisztikus modellel, ugyanazt a technikát használjuk, mint a lineáris modellek esetében. Már rendelkezésre áll a az explanatory_data adattábla, a magyarázó változó lehetséges értékeivel, ezek alapján hozzunk létre gey új prediction_data adatbázist, amely már az előrejelezett értékeket is tartalmazza. Ezt a predict() segítségével számítjuk ki, de modellobjektum és a magyarázó adatok átadása mellett a predikcióhoz a type="response" argumentumot is használnunk kell, mert így kapjuk meg a válószínűségeket.

library(tidyverse)
# hozzunk létre egy adatbázist a becsült valószínűségekkel
prediction_data <- explanatory_data %>%
    mutate(has_churned = predict(object = mdl_churn_vs_relationship, newdata = explanatory_data,
        type = "response"))
# nézzük meg az első néhány sort
prediction_data
#> # A tibble: 23 × 2
#>   time_since_first_purchase has_churned
#>                       <dbl>       <dbl>
#> 1                     -1.5        0.626
#> 2                     -1.25       0.605
#> 3                     -1          0.584
#> 4                     -0.75       0.562
#> 5                     -0.5        0.540
#> 6                     -0.25       0.518
#> # ℹ 17 more rows
…
  mutate(
    # adjuk hozzá az elvándorlási valószínűséget
    has_churned = predict(mdl_churn_vs_relationship, explanatory_data, type = "response"),
    # adjuk hozzá a legvalószínűbb elvándorlási kimenet oszlopot
    most_likely_outcome = round(has_churned),
    # Esélyarány hozzáadása
    odds_ratio = has_churned / (1 - has_churned),
    # adjuk hozzá a log esélyarányt az odds_ratio-ból
    log_odds_ratio = log(odds_ratio),
    # adjuk hozzá a log esélyarányt a predict() segítségével
    log_odds_ratio2 = predict(mdl_churn_vs_relationship, explanatory_data)
  )
# ereedmények megtekintése
prediction_data
#> # A tibble: 23 × 6
#>   time_since_first_pur…¹ has_churned most_likely_outcome odds...
#>                    <dbl>       <dbl>               <dbl>     ...
#> 1                  -1.5        0.626                   1     ...
#> 2                  -1.25       0.605                   1     ...
#> 3                  -1          0.584                   1     ...
#> 4                  -0.75       0.562                   1     ...
#> 5                  -0.5        0.540                   1     ...
#> 6                  -0.25       0.518                   1     ...
#> # ℹ 17 more rows
#> # ℹ abbreviated name: ¹​time_since_first_purchase
#> # ℹ 2 more variables: log_odds_ratio <dbl>, log_odds_ratio2 <...
…
A fenti ábra értelmezéséhez először is nézzük meg az oszlopszélességeket. Az egyes oszlopok szélessége arányos a tényleges értékek egyes kategóriáiban lévő megfigyelések hányadával. Mivel körülbelül 200 tényleges elvándorlás és 200 tényleges nem elvándorlás van, így minden oszlop szélessége azonos. Az egyes oszlopok az előrejelzett megfigyelések megfelelő hányadát mutatják. Itt a tényleges elvándorlások kicsivel több mint egynegyedét (76 ) jósolta a modell nem elvándorlásnak, így a jobb felső blokk a második oszlop magasságának kicsivel több mint egynegyedét teszi ki.

10.1.4.2 A logisztikus modell teljesítményének mérése

A yardstick konfúziós mátrix objektum lehetővé teszik a teljesítménymutatók ábrázolását és kinyerését is.

# a teljesítménymutatók kiírása a konfúziós mátrixhoz
summary(confusion, event_level = "second")
#> # A tibble: 13 × 3
#>   .metric  .estimator .estimate
#>   <chr>    <chr>          <dbl>
#> 1 accuracy binary         0.59 
#> 2 kap      binary         0.18 
#> 3 sens     binary         0.62 
#> 4 spec     binary         0.56 
#> 5 ppv      binary         0.585
#> 6 npv      binary         0.596
#> # ℹ 7 more rows
…
